{
  "href" : "https://api.spotify.com/v1/users/_aulb/playlists?offset=0&limit=20",
  "items" : [ {
    "collaborative" : false,
    "description" : "",
    "external_urls" : {
      "spotify" : "https://open.spotify.com/playlist/4UwHp3FNxseM4nt6ltjyVx"
    },
    "href" : "https://api.spotify.com/v1/playlists/4UwHp3FNxseM4nt6ltjyVx",
    "id" : "4UwHp3FNxseM4nt6ltjyVx",
    "images" : [ {
      "height" : null,
      "url" : "https://i.scdn.co/image/ab67706c0000bebbfcee321f665e2a1e41f94f6a",
      "width" : null
    } ],
    "name" : "2023 APR",
    "owner" : {
      "display_name" : "Albert",
      "external_urls" : {
        "spotify" : "https://open.spotify.com/user/_aulb"
      },
      "href" : "https://api.spotify.com/v1/users/_aulb",
      "id" : "_aulb",
      "type" : "user",
      "uri" : "spotify:user:_aulb"
    },
    "primary_color" : null,
    "public" : true,
    "snapshot_id" : "NDcsOWM0N2Q2ZTViMzM2ODgxNjI1OWE0YzI0YTgxMzMwMWZhNmE2ZmEwOA==",
    "tracks" : {
      "href" : "https://api.spotify.com/v1/playlists/4UwHp3FNxseM4nt6ltjyVx/tracks",
      "total" : 44
    },
    "type" : "playlist",
    "uri" : "spotify:playlist:4UwHp3FNxseM4nt6ltjyVx"
  }, {
    "collaborative" : false,
    "description" : "",
    "external_urls" : {
      "spotify" : "https://open.spotify.com/playlist/1Rrvcq3IRZ1Wd8qkAJQpY8"
    },
    "href" : "https://api.spotify.com/v1/playlists/1Rrvcq3IRZ1Wd8qkAJQpY8",
    "id" : "1Rrvcq3IRZ1Wd8qkAJQpY8",
    "images" : [ {
      "height" : null,
      "url" : "https://i.scdn.co/image/ab67706c0000bebb535192be18c48025a57145a9",
      "width" : null
    } ],
    "name" : "2023 JAN",
    "owner" : {
      "display_name" : "Albert",
      "external_urls" : {
        "spotify" : "https://open.spotify.com/user/_aulb"
      },
      "href" : "https://api.spotify.com/v1/users/_aulb",
      "id" : "_aulb",
      "type" : "user",
      "uri" : "spotify:user:_aulb"
    },
    "primary_color" : null,
    "public" : true,
    "snapshot_id" : "NjIsNzRlMDNhNmRmNjc5Y2Y2MzRmM2RkODliMzFjZGM0MjU5MTg5MmNhMw==",
    "tracks" : {
      "href" : "https://api.spotify.com/v1/playlists/1Rrvcq3IRZ1Wd8qkAJQpY8/tracks",
      "total" : 50
    },
    "type" : "playlist",
    "uri" : "spotify:playlist:1Rrvcq3IRZ1Wd8qkAJQpY8"
  }, {
    "collaborative" : false,
    "description" : "",
    "external_urls" : {
      "spotify" : "https://open.spotify.com/playlist/2nGWWsIF8WmUHGt2aZPT3O"
    },
    "href" : "https://api.spotify.com/v1/playlists/2nGWWsIF8WmUHGt2aZPT3O",
    "id" : "2nGWWsIF8WmUHGt2aZPT3O",
    "images" : [ {
      "height" : null,
      "url" : "https://i.scdn.co/image/ab67706c0000bebb198ae0b25c610969de8a5abf",
      "width" : null
    } ],
    "name" : "2023 FEB",
    "owner" : {
      "display_name" : "Albert",
      "external_urls" : {
        "spotify" : "https://open.spotify.com/user/_aulb"
      },
      "href" : "https://api.spotify.com/v1/users/_aulb",
      "id" : "_aulb",
      "type" : "user",
      "uri" : "spotify:user:_aulb"
    },
    "primary_color" : null,
    "public" : true,
    "snapshot_id" : "NTgsYzgxNmUyZWM5NDlhZmUyOGQxMzI3YzczOGM3MWU1MDhlMGU2NDE3Mw==",
    "tracks" : {
      "href" : "https://api.spotify.com/v1/playlists/2nGWWsIF8WmUHGt2aZPT3O/tracks",
      "total" : 50
    },
    "type" : "playlist",
    "uri" : "spotify:playlist:2nGWWsIF8WmUHGt2aZPT3O"
  }, {
    "collaborative" : false,
    "description" : "",
    "external_urls" : {
      "spotify" : "https://open.spotify.com/playlist/4EB9q0Eq1s1Kv8p0RVTpcg"
    },
    "href" : "https://api.spotify.com/v1/playlists/4EB9q0Eq1s1Kv8p0RVTpcg",
    "id" : "4EB9q0Eq1s1Kv8p0RVTpcg",
    "images" : [ {
      "height" : null,
      "url" : "https://i.scdn.co/image/ab67706c0000bebb92acff6f2f8de4c42da823ef",
      "width" : null
    } ],
    "name" : "2023 MAR",
    "owner" : {
      "display_name" : "Albert",
      "external_urls" : {
        "spotify" : "https://open.spotify.com/user/_aulb"
      },
      "href" : "https://api.spotify.com/v1/users/_aulb",
      "id" : "_aulb",
      "type" : "user",
      "uri" : "spotify:user:_aulb"
    },
    "primary_color" : null,
    "public" : true,
    "snapshot_id" : "NjAsZGFhYmIwMmY1ZTU5OWRhMmQ3OTFhNjljMGZmNGEzNDFjMmI4NDk4OA==",
    "tracks" : {
      "href" : "https://api.spotify.com/v1/playlists/4EB9q0Eq1s1Kv8p0RVTpcg/tracks",
      "total" : 55
    },
    "type" : "playlist",
    "uri" : "spotify:playlist:4EB9q0Eq1s1Kv8p0RVTpcg"
  }, {
    "collaborative" : false,
    "description" : "",
    "external_urls" : {
      "spotify" : "https://open.spotify.com/playlist/7D0oARSkDZoeKXWHI86H1t"
    },
    "href" : "https://api.spotify.com/v1/playlists/7D0oARSkDZoeKXWHI86H1t",
    "id" : "7D0oARSkDZoeKXWHI86H1t",
    "images" : [ {
      "height" : null,
      "url" : "https://i.scdn.co/image/ab67706c0000bebb4a114473cd84f28360327f8c",
      "width" : null
    } ],
    "name" : "2023 FEB #2",
    "owner" : {
      "display_name" : "Albert",
      "external_urls" : {
        "spotify" : "https://open.spotify.com/user/_aulb"
      },
      "href" : "https://api.spotify.com/v1/users/_aulb",
      "id" : "_aulb",
      "type" : "user",
      "uri" : "spotify:user:_aulb"
    },
    "primary_color" : null,
    "public" : true,
    "snapshot_id" : "NzksYzZkYzczZDBjMmY4NDg3NmE0NGNmMDNhZDM1YjczZGQ1Y2MwYmJmMQ==",
    "tracks" : {
      "href" : "https://api.spotify.com/v1/playlists/7D0oARSkDZoeKXWHI86H1t/tracks",
      "total" : 67
    },
    "type" : "playlist",
    "uri" : "spotify:playlist:7D0oARSkDZoeKXWHI86H1t"
  }, {
    "collaborative" : false,
    "description" : "",
    "external_urls" : {
      "spotify" : "https://open.spotify.com/playlist/2aOY2vqyMt9zb939b6pzNU"
    },
    "href" : "https://api.spotify.com/v1/playlists/2aOY2vqyMt9zb939b6pzNU",
    "id" : "2aOY2vqyMt9zb939b6pzNU",
    "images" : [ {
      "height" : null,
      "url" : "https://i.scdn.co/image/ab67706c0000bebbec15bf11b10acf102671d161",
      "width" : null
    } ],
    "name" : "2023 MAR #2",
    "owner" : {
      "display_name" : "Albert",
      "external_urls" : {
        "spotify" : "https://open.spotify.com/user/_aulb"
      },
      "href" : "https://api.spotify.com/v1/users/_aulb",
      "id" : "_aulb",
      "type" : "user",
      "uri" : "spotify:user:_aulb"
    },
    "primary_color" : null,
    "public" : true,
    "snapshot_id" : "MTI1LGVlZWNmYTk1YThjNDE2YTc0YzQ2NDE3Y2M5NjIzYjVmNmE3MGYzNDM=",
    "tracks" : {
      "href" : "https://api.spotify.com/v1/playlists/2aOY2vqyMt9zb939b6pzNU/tracks",
      "total" : 44
    },
    "type" : "playlist",
    "uri" : "spotify:playlist:2aOY2vqyMt9zb939b6pzNU"
  }, {
    "collaborative" : false,
    "description" : "",
    "external_urls" : {
      "spotify" : "https://open.spotify.com/playlist/5z2qLus9VGUmWHEzqMRTus"
    },
    "href" : "https://api.spotify.com/v1/playlists/5z2qLus9VGUmWHEzqMRTus",
    "id" : "5z2qLus9VGUmWHEzqMRTus",
    "images" : [ {
      "height" : null,
      "url" : "https://i.scdn.co/image/ab67706c0000bebba68e167c137dfaa0008786d1",
      "width" : null
    } ],
    "name" : "2023 MAR #3",
    "owner" : {
      "display_name" : "Albert",
      "external_urls" : {
        "spotify" : "https://open.spotify.com/user/_aulb"
      },
      "href" : "https://api.spotify.com/v1/users/_aulb",
      "id" : "_aulb",
      "type" : "user",
      "uri" : "spotify:user:_aulb"
    },
    "primary_color" : null,
    "public" : true,
    "snapshot_id" : "NjAsMmQ5MGI5MTdiMTVlNzIwYzExNTg4OWFhNWY5ZWU0M2MxNjVjYWY5Mw==",
    "tracks" : {
      "href" : "https://api.spotify.com/v1/playlists/5z2qLus9VGUmWHEzqMRTus/tracks",
      "total" : 52
    },
    "type" : "playlist",
    "uri" : "spotify:playlist:5z2qLus9VGUmWHEzqMRTus"
  }, {
    "collaborative" : false,
    "description" : "",
    "external_urls" : {
      "spotify" : "https://open.spotify.com/playlist/42drkmKKWHAEUuLxpBNGA9"
    },
    "href" : "https://api.spotify.com/v1/playlists/42drkmKKWHAEUuLxpBNGA9",
    "id" : "42drkmKKWHAEUuLxpBNGA9",
    "images" : [ {
      "height" : null,
      "url" : "https://i.scdn.co/image/ab67706c0000bebb813e5170017ad2aa867cea5d",
      "width" : null
    } ],
    "name" : "2022 OCT",
    "owner" : {
      "display_name" : "Albert",
      "external_urls" : {
        "spotify" : "https://open.spotify.com/user/_aulb"
      },
      "href" : "https://api.spotify.com/v1/users/_aulb",
      "id" : "_aulb",
      "type" : "user",
      "uri" : "spotify:user:_aulb"
    },
    "primary_color" : null,
    "public" : true,
    "snapshot_id" : "ODMsNjhiOTEyZmI3NjY1MzZlZGY1NDliOWJlYWQ4ZGFlZWMzOGVjMzUwNA==",
    "tracks" : {
      "href" : "https://api.spotify.com/v1/playlists/42drkmKKWHAEUuLxpBNGA9/tracks",
      "total" : 64
    },
    "type" : "playlist",
    "uri" : "spotify:playlist:42drkmKKWHAEUuLxpBNGA9"
  }, {
    "collaborative" : false,
    "description" : "",
    "external_urls" : {
      "spotify" : "https://open.spotify.com/playlist/2BsVTf1btqSl64BPFCJPOA"
    },
    "href" : "https://api.spotify.com/v1/playlists/2BsVTf1btqSl64BPFCJPOA",
    "id" : "2BsVTf1btqSl64BPFCJPOA",
    "images" : [ {
      "height" : null,
      "url" : "https://i.scdn.co/image/ab67706c0000bebb15913454b8231684c5e2fc79",
      "width" : null
    } ],
    "name" : "2022 NOV #2",
    "owner" : {
      "display_name" : "Albert",
      "external_urls" : {
        "spotify" : "https://open.spotify.com/user/_aulb"
      },
      "href" : "https://api.spotify.com/v1/users/_aulb",
      "id" : "_aulb",
      "type" : "user",
      "uri" : "spotify:user:_aulb"
    },
    "primary_color" : null,
    "public" : true,
    "snapshot_id" : "ODIsOTk0M2MzZWQ1MmNkYjc1NWVhZWE3NmIwZWJiZWIyZjAzNmMxNGI2OA==",
    "tracks" : {
      "href" : "https://api.spotify.com/v1/playlists/2BsVTf1btqSl64BPFCJPOA/tracks",
      "total" : 50
    },
    "type" : "playlist",
    "uri" : "spotify:playlist:2BsVTf1btqSl64BPFCJPOA"
  }, {
    "collaborative" : false,
    "description" : "",
    "external_urls" : {
      "spotify" : "https://open.spotify.com/playlist/6HFv5uUB5EtNhS24y0kGH9"
    },
    "href" : "https://api.spotify.com/v1/playlists/6HFv5uUB5EtNhS24y0kGH9",
    "id" : "6HFv5uUB5EtNhS24y0kGH9",
    "images" : [ {
      "height" : null,
      "url" : "https://i.scdn.co/image/ab67706c0000bebb9366abdb9d26d5e012d48509",
      "width" : null
    } ],
    "name" : "2022 DEC",
    "owner" : {
      "display_name" : "Albert",
      "external_urls" : {
        "spotify" : "https://open.spotify.com/user/_aulb"
      },
      "href" : "https://api.spotify.com/v1/users/_aulb",
      "id" : "_aulb",
      "type" : "user",
      "uri" : "spotify:user:_aulb"
    },
    "primary_color" : null,
    "public" : true,
    "snapshot_id" : "NDksMDgyOWJkNDBiOThjNGEwMWM5ZGU1ZjFmMDYzNjQ0OTBmN2EyMzVhZQ==",
    "tracks" : {
      "href" : "https://api.spotify.com/v1/playlists/6HFv5uUB5EtNhS24y0kGH9/tracks",
      "total" : 43
    },
    "type" : "playlist",
    "uri" : "spotify:playlist:6HFv5uUB5EtNhS24y0kGH9"
  }, {
    "collaborative" : false,
    "description" : "",
    "external_urls" : {
      "spotify" : "https://open.spotify.com/playlist/2oYpIpGhKFfs53evgt9Jsy"
    },
    "href" : "https://api.spotify.com/v1/playlists/2oYpIpGhKFfs53evgt9Jsy",
    "id" : "2oYpIpGhKFfs53evgt9Jsy",
    "images" : [ {
      "height" : null,
      "url" : "https://i.scdn.co/image/ab67706c0000bebb0192a9e99dedeb5d04dc3174",
      "width" : null
    } ],
    "name" : "2022 NOV #3",
    "owner" : {
      "display_name" : "Albert",
      "external_urls" : {
        "spotify" : "https://open.spotify.com/user/_aulb"
      },
      "href" : "https://api.spotify.com/v1/users/_aulb",
      "id" : "_aulb",
      "type" : "user",
      "uri" : "spotify:user:_aulb"
    },
    "primary_color" : null,
    "public" : true,
    "snapshot_id" : "NTksZWVlOTVhYzgzZGRhOTgwZTAwYWU3Y2U2OGE0YWQ1YjMwMjAwYTg3OA==",
    "tracks" : {
      "href" : "https://api.spotify.com/v1/playlists/2oYpIpGhKFfs53evgt9Jsy/tracks",
      "total" : 44
    },
    "type" : "playlist",
    "uri" : "spotify:playlist:2oYpIpGhKFfs53evgt9Jsy"
  }, {
    "collaborative" : false,
    "description" : "",
    "external_urls" : {
      "spotify" : "https://open.spotify.com/playlist/1d95XcljtE93cnVMi6DsTY"
    },
    "href" : "https://api.spotify.com/v1/playlists/1d95XcljtE93cnVMi6DsTY",
    "id" : "1d95XcljtE93cnVMi6DsTY",
    "images" : [ {
      "height" : null,
      "url" : "https://i.scdn.co/image/ab67706c0000bebbc7ee26a1b0098a968b78d451",
      "width" : null
    } ],
    "name" : "2022 AUG",
    "owner" : {
      "display_name" : "Albert",
      "external_urls" : {
        "spotify" : "https://open.spotify.com/user/_aulb"
      },
      "href" : "https://api.spotify.com/v1/users/_aulb",
      "id" : "_aulb",
      "type" : "user",
      "uri" : "spotify:user:_aulb"
    },
    "primary_color" : null,
    "public" : true,
    "snapshot_id" : "ODQsM2QwMDU0NDkyNTFjNmZkNDdmZjMyZmE5MDg5MWIyZTI2MjRkMTgzZA==",
    "tracks" : {
      "href" : "https://api.spotify.com/v1/playlists/1d95XcljtE93cnVMi6DsTY/tracks",
      "total" : 50
    },
    "type" : "playlist",
    "uri" : "spotify:playlist:1d95XcljtE93cnVMi6DsTY"
  }, {
    "collaborative" : false,
    "description" : "",
    "external_urls" : {
      "spotify" : "https://open.spotify.com/playlist/2qRKeKSXkWjGP8mWdaDRf6"
    },
    "href" : "https://api.spotify.com/v1/playlists/2qRKeKSXkWjGP8mWdaDRf6",
    "id" : "2qRKeKSXkWjGP8mWdaDRf6",
    "images" : [ {
      "height" : null,
      "url" : "https://i.scdn.co/image/ab67706c0000bebb09155f9de0b30c44bc467210",
      "width" : null
    } ],
    "name" : "2022 OCT #2",
    "owner" : {
      "display_name" : "Albert",
      "external_urls" : {
        "spotify" : "https://open.spotify.com/user/_aulb"
      },
      "href" : "https://api.spotify.com/v1/users/_aulb",
      "id" : "_aulb",
      "type" : "user",
      "uri" : "spotify:user:_aulb"
    },
    "primary_color" : null,
    "public" : true,
    "snapshot_id" : "ODcsM2VkZjQzOTQwZGU3MWM5NjIyYzVhZTVlMjY4MjkyYmYyNjc1YzAyZQ==",
    "tracks" : {
      "href" : "https://api.spotify.com/v1/playlists/2qRKeKSXkWjGP8mWdaDRf6/tracks",
      "total" : 61
    },
    "type" : "playlist",
    "uri" : "spotify:playlist:2qRKeKSXkWjGP8mWdaDRf6"
  }, {
    "collaborative" : false,
    "description" : "",
    "external_urls" : {
      "spotify" : "https://open.spotify.com/playlist/2dbhbBqzjID5IzwrNec45l"
    },
    "href" : "https://api.spotify.com/v1/playlists/2dbhbBqzjID5IzwrNec45l",
    "id" : "2dbhbBqzjID5IzwrNec45l",
    "images" : [ {
      "height" : null,
      "url" : "https://i.scdn.co/image/ab67706c0000bebbbb0c2aab02b7bab9bdbd5941",
      "width" : null
    } ],
    "name" : "2022 DEC #2",
    "owner" : {
      "display_name" : "Albert",
      "external_urls" : {
        "spotify" : "https://open.spotify.com/user/_aulb"
      },
      "href" : "https://api.spotify.com/v1/users/_aulb",
      "id" : "_aulb",
      "type" : "user",
      "uri" : "spotify:user:_aulb"
    },
    "primary_color" : null,
    "public" : true,
    "snapshot_id" : "NjAsZDA2M2EyNmU2M2IyOTA3YWQyM2U5YmM1MjUyNDQ4MmFmOGYxYmZiNA==",
    "tracks" : {
      "href" : "https://api.spotify.com/v1/playlists/2dbhbBqzjID5IzwrNec45l/tracks",
      "total" : 51
    },
    "type" : "playlist",
    "uri" : "spotify:playlist:2dbhbBqzjID5IzwrNec45l"
  }, {
    "collaborative" : false,
    "description" : "",
    "external_urls" : {
      "spotify" : "https://open.spotify.com/playlist/1fzp2XkR3LYMYw4FCZUrOV"
    },
    "href" : "https://api.spotify.com/v1/playlists/1fzp2XkR3LYMYw4FCZUrOV",
    "id" : "1fzp2XkR3LYMYw4FCZUrOV",
    "images" : [ {
      "height" : null,
      "url" : "https://i.scdn.co/image/ab67706c0000bebb367710e13e6d6096911e1cf0",
      "width" : null
    } ],
    "name" : "2022 NOV",
    "owner" : {
      "display_name" : "Albert",
      "external_urls" : {
        "spotify" : "https://open.spotify.com/user/_aulb"
      },
      "href" : "https://api.spotify.com/v1/users/_aulb",
      "id" : "_aulb",
      "type" : "user",
      "uri" : "spotify:user:_aulb"
    },
    "primary_color" : null,
    "public" : true,
    "snapshot_id" : "NzcsZTc4ZDM3NjQyN2UxZTE0YjlmOTJjMDZhZTQ4OWJjMGUzYjgyMWNkZA==",
    "tracks" : {
      "href" : "https://api.spotify.com/v1/playlists/1fzp2XkR3LYMYw4FCZUrOV/tracks",
      "total" : 49
    },
    "type" : "playlist",
    "uri" : "spotify:playlist:1fzp2XkR3LYMYw4FCZUrOV"
  }, {
    "collaborative" : false,
    "description" : "",
    "external_urls" : {
      "spotify" : "https://open.spotify.com/playlist/6rQL1kWK7BHQ1gL7BfJSSx"
    },
    "href" : "https://api.spotify.com/v1/playlists/6rQL1kWK7BHQ1gL7BfJSSx",
    "id" : "6rQL1kWK7BHQ1gL7BfJSSx",
    "images" : [ {
      "height" : null,
      "url" : "https://i.scdn.co/image/ab67706c0000bebb2f641bd9e963137f6d18fa96",
      "width" : null
    } ],
    "name" : "2022 SEP",
    "owner" : {
      "display_name" : "Albert",
      "external_urls" : {
        "spotify" : "https://open.spotify.com/user/_aulb"
      },
      "href" : "https://api.spotify.com/v1/users/_aulb",
      "id" : "_aulb",
      "type" : "user",
      "uri" : "spotify:user:_aulb"
    },
    "primary_color" : null,
    "public" : true,
    "snapshot_id" : "OTcsNTg1NTM3OTU3ZWExOTBjNzIzY2FkMzdlZDIyMTBiZjYwNmVlZmQ2NA==",
    "tracks" : {
      "href" : "https://api.spotify.com/v1/playlists/6rQL1kWK7BHQ1gL7BfJSSx/tracks",
      "total" : 75
    },
    "type" : "playlist",
    "uri" : "spotify:playlist:6rQL1kWK7BHQ1gL7BfJSSx"
  }, {
    "collaborative" : false,
    "description" : "",
    "external_urls" : {
      "spotify" : "https://open.spotify.com/playlist/6MrCRqFuYCMZOtGIJzgRjN"
    },
    "href" : "https://api.spotify.com/v1/playlists/6MrCRqFuYCMZOtGIJzgRjN",
    "id" : "6MrCRqFuYCMZOtGIJzgRjN",
    "images" : [ {
      "height" : null,
      "url" : "https://i.scdn.co/image/ab67706c0000bebbc13c8dcd1ed288414f7a50cf",
      "width" : null
    } ],
    "name" : "2022 JUL",
    "owner" : {
      "display_name" : "Albert",
      "external_urls" : {
        "spotify" : "https://open.spotify.com/user/_aulb"
      },
      "href" : "https://api.spotify.com/v1/users/_aulb",
      "id" : "_aulb",
      "type" : "user",
      "uri" : "spotify:user:_aulb"
    },
    "primary_color" : null,
    "public" : true,
    "snapshot_id" : "MzgsMjQwMjJmOGE5NzU2ZGQwOGFkMWQ4ZTc4ODFjNGZlZTc4ZmEzODMxMA==",
    "tracks" : {
      "href" : "https://api.spotify.com/v1/playlists/6MrCRqFuYCMZOtGIJzgRjN/tracks",
      "total" : 30
    },
    "type" : "playlist",
    "uri" : "spotify:playlist:6MrCRqFuYCMZOtGIJzgRjN"
  }],
  "limit" : 20,
  "next" : "https://api.spotify.com/v1/users/_aulb/playlists?offset=20&limit=20",
  "offset" : 0,
  "previous" : null,
  "total" : 78
}